{
  "type": "service_account",
  "project_id": "tpnccu",
  "private_key_id": "ffe0fb479567ea487d1dd5a6e7eeef44b457e075",
  "private_key": "-----BEGIN PRIVATE KEY-----\nMIIEvQIBADANBgkqhkiG9w0BAQEFAASCBKcwggSjAgEAAoIBAQDQY7HbpBjrbK0q\nSgz0EdwKQ5oj+ryShG4yo1XkbeB0LNnHiBojPgsOC3g83SMHywZUnPagG+Jo3mkd\nf/ZU9Wb9pgd23ZFGrkhMiZhdTPxZq/66XydnFIEYXE/ZBNNAiWiJP5rLvvXm9res\n8OtayJ/fUfB74kVKEouzQUNQdDDBkR5LmXSh8IeeFH4YiHkblOivImYAjLn3UZhK\nrWo6Xin8tFeiNMgiPqZ2aiRLRrXnm7TQvlMjN9ZsupjlNYUXkRGsUorMUlqvHX/b\nJTpTXe/tdo7gbNBZaoOZgf6LtwA8mRdxMw4GYx440/axETRpvIb5XjsMLCclR/01\nQ6ZMCpEfAgMBAAECggEAM1b8cJJjGU0y9GI+AruLrHOvPAIAB1DdHVikRpzTWYvb\nM49ScTBN5O3qd4Q7pyXbr2jkUdnM0+1HlF78Pz4eW4tV93Dq47D4WvLjOMlIuobn\nQN9Eg97HV0sW2O6ZZSL1QCsNZfjr+DT8V30bXshiqtAzITJDw9YB2O3RObcGdAls\nV3cs+GtsSEJjAKmA6xsgTUfq8aCEiiIdTppLuW3OnnKgDu2BGTFxgWWilFn2XQtt\n9gg/EX5wbRxvBrZnGrmgJDI92N1bKVGEtsjkZ373V/x4l7kByzTixCB7B2X+Eakv\nGKM8qhj6cuVHL6oOGeUQ/mqfyX6EloAYIgDcT05h4QKBgQD9AIpj+2P4cFwVyQo6\nuo2s+Wh0a2hvKzuG45fkb3ptfo8c4QTZqHL46OhkZ5k7ZREBOk+qAqPxrP1O/ZMg\nwyvaGL6uPflSmCITRKQEuI3/b7bELZ/aCqh/UA9gcAStxsBSgF6MbYpdcHB10hdu\nZDQZdVDRk8aX0o0OFu0vi3uT6QKBgQDS29NY1JYwLbWxKjmg5PGdsHV6Eoi/tDq7\n/pqTRh/kAAtQW07ROj0oxFkg7JRqcsju/X0SUMkjEUkZRjRb4HMf0/nPgWQI509s\n1je3jH0xa2REBTD0FaLgmKw/zXtgQo0AJbfZ05y3VcJRIazY4+awfzTrk8IXF4we\nfh6uDYp/xwKBgQDgSMRmUguTyHe50FlDKvJBr3BMFJOmSZshv0198t2Dh7hzD3/v\nPId/5Wlu6PBMWRI0Fm9c9a5EpuiASAdP+fU8CMexS7tk3v0GO8lzbfBjy7MoQpH9\nB4nMIzsecO+U5ibEfIxUzR7mKrFnoXGoKSiOkROuVuSs3rixDt4BUhOhUQKBgGCp\n3e2vJ1rW2aBqVxjnW8yKhJB9xqr7mKFuSraRQzVmv8kK0ssgA8GYobNyQWe7T1og\nYyHuXwbwea5YfNBRyPUiXDdAffeG8uZWHhzLDumE7eYw6ww6jvyfgPeO36x1VeZn\nZC070XBKpFZFNdQIRk1LQ5trlWK4rMed0brBAmkpAoGAQ8swkNuCGABKYo1LGiMC\nv+6Ik+IQPZ0fkAPSPrPw9PyKBnMIFTq3WIYgWzppBNX3ZUuCjz22XJxQkADNX4JS\n390GskWZ9huliv5T7PTeVTrol+2KfFcyH5xhmvF3E1iHOUui75Y03W1JgK5K6b7I\nxKnp6IrritRHK9FX8xc2fGw=\n-----END PRIVATE KEY-----\n",
  "client_email": "aymen18@tpnccu.iam.gserviceaccount.com",
  "client_id": "107567340926512012079",
  "auth_uri": "https://accounts.google.com/o/oauth2/auth",
  "token_uri": "https://oauth2.googleapis.com/token",
  "auth_provider_x509_cert_url": "https://www.googleapis.com/oauth2/v1/certs",
  "client_x509_cert_url": "https://www.googleapis.com/robot/v1/metadata/x509/aymen18%40tpnccu.iam.gserviceaccount.com",
  "universe_domain": "googleapis.com"
}
